4001#포링카드#
4002#파브르카드#
4003#푸파카드#
4004#드롭프스카드#
4005#산타포링카드#
4006#루나틱카드#
4007#페코페코알카드#
4008#픽키카드#
4009#촌촌카드#
4010#윌로우카드#
4011#알픽키카드#
4012#도둑벌레알카드#
4013#앙드레알카드#
4014#로다프로그카드#
4015#콘도르카드#
4016#도둑벌레카드#
4017#새비지베베카드#
4018#앙드레유충카드#
4019#호넷카드#
4020#퍼밀리어카드#
4021#로커카드#
4022#스포아카드#
4023#데울프새끼카드#
4024#플랑크톤카드#
4025#스켈레톤카드#
4026#암도둑벌레카드#
4027#쿠크레카드#
4028#타로우카드#
4029#울프카드#
4030#만드라고라카드#
4031#페코페코카드#
4032#앰버나이트카드#
4033#포포링카드#
4034#웜테일카드#
4035#히드라카드#
4036#무카카드#
4037#스네이크카드#
4038#좀비카드#
4039#스타이너카드#
4040#크리미카드#
4041#코코카드#
4042#스틸촌촌카드#
4043#앙드레카드#
4044#스모키카드#
4045#호른카드#
4046#마르틴카드#
4047#고스트링카드#
4048#포스포아카드#
4049#바돈카드#
4050#수도둑벌레카드#
4051#요요카드#
4052#엘더윌로우카드#
4053#비타타카드#
4054#엔젤링카드#
4055#마리나카드#
4056#더스티네스카드#
4057#메틀러카드#
4058#타라프로그카드#
4059#병정앙드레카드#
4060#고블린카드#
4061#커너투스카드#
4062#아나콘다크카드#
4063#카라멜카드#
4064#제롬카드#
4065#카호카드#
4066#오크워리어카드#
4067#메갈로돈카드#
4068#스콜피온카드#
4069#드레인리어카드#
4070#에기라카드#
4071#오크좀비카드#
4072#고렘카드#
4073#해적스켈카드#
4074#빅풋카드#
4075#아르고스카드#
4076#백련옥카드#
4077#휀카드#
4078#새비지카드#
4079#맨티스카드#
4080#플로라카드#
4081#호드카드#
4082#데저트울프카드#
4083#라플레시아카드#
4084#마린스피어카드#
4085#오크스켈카드#
4086#솔져스켈톤카드#
4087#가이아스카드#
4088#프릴도라카드#
4089#소드피쉬카드#
4090#무낙카드#
4091#코볼트카드#
4092#스켈워커카드#
4093#오본느카드#
4094#아쳐스켈톤카드#
4095#마르스카드#
4096#제노크카드#
4097#마타카드#
4098#도깨비카드#
4099#파사나카드#
4100#소희카드#
4101#샌드맨카드#
4102#위스퍼카드#
4103#호롱카드#
4104#레퀴엠카드#
4105#마르크카드#
4106#미이라카드#
4107#베릿트카드#
4108#미스트카드#
4109#잭카드#
4110#구울카드#
4111#스트라우프카드#
4112#마르두크카드#
4113#마리오네트카드#
4114#아르지오프카드#
4115#헌터플라이카드#
4116#이시스카드#
4117#쌍두뱀카드#
4118#지상쁘띠카드#
4119#바소리카드#
4120#공중쁘띠카드#
4121#프리오니카드#
4122#데비루치카드#
4123#에드가카드#
4124#메두사카드#
4125#데비어스카드#
4126#황소카드#
4127#나이트메어카드#
4128#금도둑벌레카드#
4129#바포주니어카드#
4130#스콜피언킹카드#
4131#월야화카드#
4132#미스트레스카드#
4133#레이드릭카드#
4134#드라큐라카드#
4135#오크로드카드#
4136#스켈나이트카드#
4137#드레이크카드#
4138#아누비스카드#
4139#조커카드#
4140#칼리츠버그카드#
4141#드루이드카드#
4142#도플갱어카드#
4143#오크히어로카드#
4144#오시리스카드#
4145#베르제브브카드#
4146#마야카드#
4147#바포메트카드#
4148#파라오카드#
4149#가고일카드#
4150#고우트카드#
4151#가조마르트카드#
4152#갈라파고카드#
4153#게카드#
4154#경단동자카드#
4155#고블린리더카드#
4156#고블린스팀라이더카드#
4157#고블린아쳐카드#
4158#공중딜리터카드#
4159#구미호카드#
4160#구식조총병카드#
4161#그랜드페코카드#
4162#그리즐리카드#
4163#그리폰카드#
4164#글린부르스티카드#
4165#기그카드#
4166#나이트메어테러카드#
4167#네레이드카드#
4168#다크로드카드#
4169#다크일루젼카드#
4170#다크프레임카드#
4171#다크프리스트카드#
4172#더페이퍼카드#
4173#데몬펑거스카드#
4174#데빌링카드#
4175#독두꺼비카드#
4176#듈라한카드#
4177#드라이어드카드#
4178#드래곤테일카드#
4179#드래곤플라이카드#
4180#드릴러카드#
4181#디스가이즈카드#
4182#디아볼릭카드#
4183#떠돌이늑대카드#
4184#라바골렘카드#
4185#라이드워드카드#
4186#레글러카드#
4187#레이드릭아쳐카드#
4188#레이브올마이카드#
4189#레이스데드카드#
4190#레이쓰카드#
4191#로리루리카드#
4192#로터자이로카드#
4193#루드카드#
4194#리비오카드#
4195#리프캣카드#
4196#마린카드#
4197#마스터링카드#
4198#마야퍼플카드#
4199#머맨카드#
4200#메갈리스카드#
4201#메이저우로스카드#
4202#묘괴카드#
4203#뮤턴트드래고노이드카드#
4204#미니데몬카드#
4205#미믹카드#
4206#미스트케이스카드#
4207#미스틸테인카드#
4208#미야비인형카드#
4209#바이올리카드#
4210#배회하는자카드#
4211#보컬카드#
4212#본건카드#
4213#브릴라이트카드#
4214#블러디머더러카드#
4215#블레이저카드#
4216#사스콰치카드#
4217#생도목카드#
4218#서큐버스카드#
4219#세이지웜카드#
4220#솔리더카드#
4221#스켈레톤제네럴카드#
4222#스켈프리즈너카드#
4223#스터랙틱고렘카드#
4224#스템웜카드#
4225#스톤슈터카드#
4226#스팅카드#
4227#스프링래빗카드#
4228#슬리퍼카드#
4229#시계탑관리자카드#
4230#시노비카드#
4231#식양카드#
4232#신선초카드#
4233#아기표범카드#
4234#아놀리안카드#
4235#XMAS쿠키카드#
4236#아몬라카드#
4237#아울듀크카드#
4238#아울바론카드#
4239#아이언피스트카드#
4240#아크라우스카드#
4241#아크엔젤링카드#
4242#아포칼립스카드#
4243#안토니오카드#
4244#알람카드#
4245#암무트카드#
4246#어절터카드#
4247#에스터카드#
4248#에인션트미이라카드#
4249#에인션트웜카드#
4250#엑서큐서너카드#
4251#엘더카드#
4252#엘리게이터카드#
4253#엘리스카드#
4254#오우거투스카드#
4255#오크레이디카드#
4256#오크아쳐카드#
4257#와일드로즈카드#
4258#요선녀카드#
4259#우든골렘카드#
4260#우탄슈터카드#
4261#우탄파이터카드#
4262#운악선카드#
4263#원령무사카드#
4264#윈드고스트카드#
4265#이매망량카드#
4266#이클립스카드#
4267#익스플로젼카드#
4268#인저스티스카드#
4269#인큐버스카드#
4270#자이언트스파이더카드#
4271#자이언트호넷카드#
4272#저파룡카드#
4273#조개카드#
4274#좀비마스터카드#
4275#좀비프리즈너카드#
4276#죽은자의주인카드#
4277#지르타스카드#
4278#지벳트카드#
4279#지상딜리터카드#
4280#지오그래퍼카드#
4281#지퍼베어카드#
4282#천구카드#
4283#천하대장군카드#
4284#체펫트카드#
4285#쵸코카드#
4286#카라카사카드#
4287#캇파카드#
4288#캐럿카드#
4289#캐터필러카드#
4290#캣오나인테일카드#
4291#코볼트리더카드#
4292#코볼트아쳐카드#
4293#쿠키카드#
4294#큐브카드#
4295#크라벤카드#
4296#크램프카드#
4297#크루이져카드#
4298#크리미피어카드#
4299#클락카드#
4300#키메라카드#
4301#킬러맨티스카드#
4302#타오군카카드#
4303#거대위스퍼카드#
4304#탐루안카드#
4305#터틀제네럴카드#
4306#토드카드#
4307#투구벌레카드#
4308#트라이조인트카드#
4309#패러사이트카드#
4310#팬저고블린카드#
4311#퍼머터카드#
4312#퍼씰카드#
4313#펑크카드#
4314#페노메나카드#
4315#페스트카드#
4316#페이크엔젤카드#
4317#폭력배카드#
4318#폭풍의기사카드#
4319#프리저카드#
4320#피빛의기사카드#
4321#하이로조이스트카드#
4322#하이오크카드#
4323#하티베베카드#
4324#하티카드#
4325#하피카드#
4326#해달카드#
4327#혈호접카드#
4328#혜군카드#
4329#휀다르크카드#
4330#흑사왕카드#
4331#히터카드#
4332#고철난로#
4333#베노머스#
4334#녹시어스#
4335#핏맨#
4336#운골리안트#
4337#폴셀리오#
4338#옵시디언#
4339#미네랄#
4340#곰인형#
4341#메탈링#
4342#RSX0806카드#
4343#홀덴#
4344#위레스카드#
4345#힐윈드카드#
4346#이그니젬세니아카드#
4347#아르마이어딘제카드#
4348#휘케바인트리스카드#
4349#이렌드에베시카드#
4350#라우렐뷘더카드#
4351#카바크이카루스카드#
4352#보스이그니젬카드#
4353#리무버카드#
4354#제미니#
4355#그렘린카드#
4356#비홀더#
4357#로드나이트카드#
4358#세이렌윈저카드#
4359#어쌔신크로스카드#
4360#에레메스가일카드#
4361#화이트스미스카드#
4362#하워드알트아이젠카드#
4363#하이프리스트#
4364#마가레타소린카드#
4365#하이위자드카드#
4366#카트린느케이론카드#
4367#스나이퍼카드#
4368#셰실디먼카드#
4369#베나투#
4370#디미크카드#
4371#아크담#
4372#백소진#
4373#청이#
4374#베스퍼카드#
4375#오크베이비#
4376#타니아가씨#
4377#그로브#
4378#골드어시더스#
4379#블루어시더스카드#
4380#레드페러스카드#
4381#그린페러스카드#
4382#옐로우노버스#
4383#레드노버스#
4384#하이드로랜서#
4385#드래곤의알#
4386#디타르데우르스카드#
4387#에인션트미믹#
4388#데스워드#
4389#플라즈마#
4390#산들바람#
4391#신벌의대행자카드#
4392#감시하는자카드#
4393#안식을주는자카드#
4394#위로하는자#
4395#타나토스의슬픔#
4396#타나노스의증오#
4397#타나토스의절망#
4398#타나토스의고뇌#
4399#타나토스의기억카드#
4400#엘리자#
4401#엘리셀#
4402#엘리엇#
4403#키엘카드#
4404#스코글#
4405#프루스#
4406#스케골트#
4407#란드그리스#

4408#글룸언더나이트카드#
4409#아가브카드#
4410#에키오카드#
4411#판베르크카드#
4412#이실라카드#
4413#호드렘린카드#
4414#시커카드#
4415#스노이어카드#
4416#시로마카드#
4417#아이스티탄카드#
4418#가에즈티카드#
4419#크툴라낙스카드#
4420#머스키퓰라카드#
4421#드로세라카드#
4422#로우윈카드#
4423#갈리온카드#
4424#스태포카드#
4425#아트로스카드#
4426#뵤르그카드#
4427#소드가디언카드#
4428#보우가디언카드#
4429#샐러맨더카드#
4430#이프리트카드#
4431#카사카드#
4432#마그마링카드#
4433#임프카드#
4434#녹커카드#
4435#좀비슬러터카드#
4436#누더기좀비카드#
4437#헬푸들카드#
4438#밴시카드#
4439#플레임스컬카드#
4440#네크로맨서카드#
4441#타락한대신관카드#
4442#따따초카드#
4443#아쿠아엘레멘탈카드#
4444#드라코카드#
4445#루시올라베스파카드#
4447#센티페데카드#
4448#코르누스카드#
4449#다크쉐도우카드#
4450#밴시마스터카드#
4451#엔트바이엔카드#
4452#센티페데유충카드#
4453#힐스리온카드#
4454#밝히리카드1#
4455#밝히리카드2#
4456#니드호그의그림자카드#
4457#나흐트지거카드#
4458#두네이르카드#
4459#라타카드#
4460#링코카드#
4461#필라카드#
4462#하드락맘모스카드#
4463#텐드릴리온카드#
4464#아우노에카드#
4465#파나트카드#
4466#비홀더마스터카드#
4467#헤비메탈링카드#
4468#핀귀큘라다크카드#
4469#나가카드#
4470#네펜데스카드#
4471#드라코의알카드#
4472#브라디움고렘카드#
4473#에인션트트리카드#
4474#자쿠담카드#
4475#코발트미네랄카드#
4476#핀귀큘라카드#
4477#헬아포칼립스카드#
4480#봉인된키엘_D01카드#
4481#봉인된크툴라낙스카드#
4482#봉인된보스이그니젬카드#
4483#봉인된드라큐라카드#
4484#봉인된미스트레스카드#
4485#봉인된글룸카드#

4478#밝히리카드3#
4479#밝히리카드4#
4491#봉인된셰실디먼카드#
4494#봉인된터틀제네럴카드#
4495#봉인된아몬라카드#

4486#봉인된베르제브브카드#
4504#봉인된에드가카드#
4497#봉인된폭풍의기사카드#
4498#봉인된타니아가씨카드#
4499#봉인된원령무사카드#
4500#봉인된오크로드카드#
4501#봉인된하이프리스트카드#
4502#봉인된화이트스미스카드#
4503#봉인된베스퍼카드#
4504#봉인된에드가카드#


4700#sorry#
4701#sorry#
4702#sorry#
4703#sorry#
4704#sorry#
4705#sorry#
4706#sorry#
4707#sorry#
4708#sorry#
4709#sorry#
4710#sorry#
4711#sorry#
4712#sorry#
4713#sorry#
4714#sorry#
4715#sorry#
4716#sorry#
4717#sorry#
4718#sorry#
4719#sorry#
4720#sorry#
4721#sorry#
4722#sorry#
4723#sorry#
4724#sorry#
4725#sorry#
4726#sorry#
4727#sorry#
4728#sorry#
4729#sorry#
4730#sorry#
4731#sorry#
4732#sorry#
4733#sorry#
4734#sorry#
4735#sorry#
4736#sorry#
4737#sorry#
4738#sorry#
4739#sorry#
4740#sorry#
4741#sorry#
4742#sorry#
4743#sorry#
4744#sorry#
4745#sorry#
4746#sorry#
4747#sorry#
4748#sorry#
4749#sorry#
4750#sorry#
4751#sorry#
4752#sorry#
4753#sorry#
4754#sorry#
4755#sorry#
4756#sorry#
4757#sorry#
4758#sorry#
4759#sorry#
4760#sorry#
4761#sorry#
4762#sorry#
4763#sorry#
4764#sorry#
4765#sorry#
4766#sorry#
4767#sorry#
4963#sorry#
4964#sorry#
4965#sorry#
4966#sorry#
4967#sorry#
4968#sorry#
4969#sorry#
4970#sorry#
4971#sorry#
4972#sorry#
4973#sorry#
4974#sorry#
4975#sorry#
4976#sorry#
4977#sorry#
4978#sorry#
4979#sorry#
4980#sorry#
4981#sorry#
4982#sorry#
4983#sorry#
4984#sorry#
4985#sorry#
4986#sorry#
4987#sorry#
4988#sorry#
4989#sorry#
4990#sorry#
4991#sorry#
4992#sorry#
4993#sorry#
4994#sorry#
4995#sorry#
4996#sorry#
4997#sorry#
4998#sorry#
4999#sorry#
4850#sorry#
4851#sorry#
4852#sorry#
4853#sorry#
4854#sorry#
4855#sorry#
4856#sorry#
4857#sorry#
4858#sorry#
4859#sorry#
4860#sorry#
4861#sorry#
4862#sorry#
4863#sorry#
4864#sorry#
4865#sorry#
4866#sorry#
4867#sorry#
4868#sorry#
4869#sorry#
4870#sorry#
4871#sorry#
4872#sorry#
4873#sorry#
4874#sorry#
4875#sorry#
4876#sorry#
4877#sorry#
4878#sorry#
4879#sorry#
4880#sorry#
4881#sorry#
4882#sorry#
4883#sorry#
4884#sorry#
4885#sorry#
4886#sorry#
4887#sorry#
4888#sorry#
4889#sorry#
4890#sorry#
4891#sorry#
4892#sorry#
4893#sorry#
4894#sorry#
4895#sorry#
4896#sorry#
4897#sorry#
4898#sorry#
4899#sorry#
4900#sorry#
4901#sorry#
4902#sorry#
4903#sorry#
4904#sorry#
4905#sorry#
4906#sorry#
4907#sorry#
4908#sorry#
4909#sorry#
4910#sorry#
4911#sorry#
4912#sorry#
4913#sorry#
4914#sorry#


30000#sorry#
30001#sorry#

// ========================== SMARTRO CARTAS LHZ ============================== //
//Cartas LHZ04 MVP's
30015#g_randel#
30002#g_flamel#
30003#g_celia#
30004#g_chen#
30005#g_gertie#
30006#g_alphoccio#
30007#g_trentini#
// Cartas LHZ04
30008#randel#
30009#flamel#
30010#celia#
30011#chen#
30012#gertie#
30013#alphoccio#
30014#trentine#
